week2/q1_tb.vcd
$date
	Mon Aug 29 09:40:10 2022
$end
$version
	Icarus Verilog
$end
$timescale
	1ns
$end
$scope module q1_tb $end
$var wire 1 ! f $end
$var reg 1 " a $end
$var reg 1 # b $end
$var reg 1 $ c $end
$var reg 1 % d $end
$scope module l2 $end
$var wire 1 ! f $end
$var wire 1 " x1 $end
$var wire 1 # x2 $end
$var wire 1 $ x3 $end
$var wire 1 % x4 $end
$upscope $end
$upscope $end
$enddefinitions $end
#0
$dumpvars
0%
0$
0#
0"
0!
$end
#20
1%
#40
1!
0%
1$
#60
1%
#80
0%
0$
1#
#100
1%
#120
0%
1$
#140
1%
#160
0!
0%
0$
0#
#180
1%
#200
1!
0%
1$
#220
1%
#240
1!
0%
0$
1#
1"
#260
0!
1%
#280
0%
1$
#300
1!
1%
#320
0!
0%
0$
0#
#340
1%
#360
1!
0%
1$
#380
1%
